<?xml version="1.0" encoding="utf-8"?>
<!-- Generator: Adobe Illustrator 19.1.0, SVG Export Plug-In . SVG Version: 6.00 Build 0)  -->
<svg version="1.1" id="Layer_1" xmlns="http://www.w3.org/2000/svg" xmlns:xlink="http://www.w3.org/1999/xlink" x="0px" y="0px"
	 viewBox="0 0 24 28" style="enable-background:new 0 0 24 28;" xml:space="preserve">
<style type="text/css">
	.st0{fill:#1c1c1c;}
</style>
<path class="st0" d="M0,0v28h9v-9h6v9h9V0H0z M23,27h-7v-9H8v9H1V1h22V27z M5,19H4v4h1V19z M11,5H4v4h7V5z M10,8H5V6h5V8z M11,11H4
	v4h7V11z M10,14H5v-2h5V14z M20,5h-7v4h7V5z M19,8h-5V6h5V8z M20,11h-7v4h7V11z M19,14h-5v-2h5V14z M19,23h1v-4h-1V23z"/>
</svg>
